{
  "images" : [
    {
      "idiom" : "universal",
      "filename" : "mindfulness.pdf"
    },
    {
      "idiom" : "universal",
      "scale" : "1x"
    },
    {
      "idiom" : "universal",
      "scale" : "2x"
    },
    {
      "idiom" : "universal",
      "scale" : "3x"
    },
    {
      "idiom" : "iphone"
    },
    {
      "idiom" : "iphone",
      "scale" : "1x"
    },
    {
      "idiom" : "iphone",
      "subtype" : "retina4",
      "scale" : "1x"
    },
    {
      "idiom" : "iphone",
      "scale" : "2x"
    },
    {
      "idiom" : "iphone",
      "subtype" : "retina4",
      "scale" : "2x"
    },
    {
      "idiom" : "iphone",
      "scale" : "3x"
    },
    {
      "idiom" : "iphone",
      "subtype" : "retina4",
      "scale" : "3x"
    },
    {
      "idiom" : "ipad"
    },
    {
      "idiom" : "ipad",
      "scale" : "1x"
    },
    {
      "idiom" : "ipad",
      "scale" : "2x"
    },
    {
      "idiom" : "car"
    },
    {
      "idiom" : "car",
      "scale" : "2x"
    },
    {
      "idiom" : "car",
      "scale" : "3x"
    },
    {
      "idiom" : "watch"
    },
    {
      "idiom" : "watch",
      "screen-width" : "<=145"
    },
    {
      "idiom" : "watch",
      "screen-width" : ">161"
    },
    {
      "idiom" : "watch",
      "screen-width" : ">145"
    },
    {
      "idiom" : "watch",
      "screen-width" : ">183"
    },
    {
      "idiom" : "watch",
      "scale" : "2x"
    },
    {
      "idiom" : "watch",
      "scale" : "2x",
      "screen-width" : "<=145"
    },
    {
      "idiom" : "watch",
      "scale" : "2x",
      "screen-width" : ">161"
    },
    {
      "idiom" : "watch",
      "scale" : "2x",
      "screen-width" : ">145"
    },
    {
      "idiom" : "watch",
      "scale" : "2x",
      "screen-width" : ">183"
    },
    {
      "idiom" : "mac"
    },
    {
      "idiom" : "mac",
      "scale" : "1x"
    },
    {
      "idiom" : "mac",
      "scale" : "2x"
    }
  ],
  "info" : {
    "version" : 1,
    "author" : "xcode"
  }
}