{
  "colors": [
    {
      "idiom": "universal",
      "color": {
        "color-space": "srgb",
        "components": {
          "red": 1.0,
          "green": 0.3882353,
          "blue": 0.2784314,
          "alpha": 1.0
        }
      }
    }
  ],
  "info": {
    "version": 1,
    "author": "xcode"
  }
}